{
  "LuaSnip": { "branch": "master", "commit": "c9b9a22904c97d0eb69ccb9bab76037838326817" },
  "cmp-nvim-lsp": { "branch": "main", "commit": "99290b3ec1322070bcfb9e846450a46f6efa50f0" },
  "cmp-path": { "branch": "main", "commit": "91ff86cd9c29299a64f968ebb45846c485725f23" },
  "cmp_luasnip": { "branch": "master", "commit": "98d9cb5c2c38532bd9bdb481067b20fea8f32e90" },
  "conform.nvim": { "branch": "master", "commit": "a6f5bdb78caa305496357d17e962bbc4c0b392e2" },
  "fidget.nvim": { "branch": "main", "commit": "d9ba6b7bfe29b3119a610892af67602641da778e" },
  "gitsigns.nvim": { "branch": "main", "commit": "8b00147519d6f8353867d5d0b55f587306b0cfb6" },
  "gruvbox.nvim": { "branch": "main", "commit": "089b60e92aa0a1c6fa76ff527837cd35b6f5ac81" },
  "lazy.nvim": { "branch": "main", "commit": "7e6c863bc7563efbdd757a310d17ebc95166cef3" },
  "lazydev.nvim": { "branch": "main", "commit": "a1b78b2ac6f978c72e76ea90ae92a94edf380cfc" },
  "mason-lspconfig.nvim": { "branch": "main", "commit": "1a31f824b9cd5bc6f342fc29e9a53b60d74af245" },
  "mason-tool-installer.nvim": { "branch": "main", "commit": "374c78d3ebb5c53f43ea6bd906b6587b5e899b9e" },
  "mason.nvim": { "branch": "main", "commit": "fc98833b6da5de5a9c5b1446ac541577059555be" },
  "mini.nvim": { "branch": "main", "commit": "4dd209e4f03bacd46d6d87408b2529a8823112fb" },
  "nerdtree": { "branch": "master", "commit": "9b465acb2745beb988eff3c1e4aa75f349738230" },
  "nvim-cmp": { "branch": "main", "commit": "12509903a5723a876abd65953109f926f4634c30" },
  "nvim-lint": { "branch": "master", "commit": "6e9dd545a1af204c4022a8fcd99727ea41ffdcc8" },
  "nvim-lspconfig": { "branch": "master", "commit": "7af2c37192deae28d1305ae9e68544f7fb5408e1" },
  "nvim-treesitter": { "branch": "master", "commit": "00a513f87ee3c339c2024b08db3eb63ba7736ed6" },
  "nvim-web-devicons": { "branch": "master", "commit": "1020869742ecb191f260818234517f4a1515cfe8" },
  "plenary.nvim": { "branch": "master", "commit": "857c5ac632080dba10aae49dba902ce3abf91b35" },
  "telescope-fzf-native.nvim": { "branch": "main", "commit": "2a5ceff981501cff8f46871d5402cd3378a8ab6a" },
  "telescope-ui-select.nvim": { "branch": "master", "commit": "6e51d7da30bd139a6950adf2a47fda6df9fa06d2" },
  "telescope.nvim": { "branch": "0.1.x", "commit": "a0bbec21143c7bc5f8bb02e0005fa0b982edc026" },
  "todo-comments.nvim": { "branch": "main", "commit": "304a8d204ee787d2544d8bc23cd38d2f929e7cc5" },
  "trouble.nvim": { "branch": "main", "commit": "85bedb7eb7fa331a2ccbecb9202d8abba64d37b3" },
  "vim-fugitive": { "branch": "master", "commit": "b068eaf1e6cbe35d1ac100d435cd7f7b74a5c87d" },
  "vim-sleuth": { "branch": "master", "commit": "be69bff86754b1aa5adcbb527d7fcd1635a84080" },
  "which-key.nvim": { "branch": "main", "commit": "5bf7a73fe851896d5ac26d313db849bf00f45b78" }
}
